example of granger causality with SP500 and unemployment figures from 1950 to 2019

#STEP1) GET DATA

#read xlsx
install.packages("readxl")
library("readxl")

my_data <- read_excel("SP500_unemployment_historical.xlsx", sheet = "Sheet_1")

> my_data                                                                     
# A tibble: 70 x 3
   Date       Close Unemployment
   <chr>      <dbl>        <dbl>
 1 1950-01-01  17.0          6.5
 2 1951-01-01  21.7          3.7
 3 1952-01-01  24.1          3.2
 4 1953-01-01  26.4          2.9
 5 1954-01-01  26.1          4.9
 6 1955-01-01  36.6          4.9
 7 1956-01-01  43.8          4  
 8 1957-01-01  44.7          4.2
 9 1958-01-01  41.7          5.8
10 1959-01-01  55.5          6  
# … with 60 more rows
…
